{
    "KPlugin": {
        "Description": "CMake plugin for kate",
        "Description[az]": "Kate üçün CMake əlavəsi",
        "Description[bg]": "Приставка на CMake за kate",
        "Description[ca@valencia]": "Connector de CMake per a Kate",
        "Description[ca]": "Connector de CMake per al Kate",
        "Description[de]": "CMake-Modul für Kate",
        "Description[en_GB]": "CMake plugin for kate",
        "Description[es]": "Complemento CMake para Kate",
        "Description[fi]": "Katen CMake-liitännäinen",
        "Description[fr]": "Module externe « CMake » pour Kate",
        "Description[hu]": "CMake bővítmény a Kate-hez",
        "Description[ia]": "Plugin de CMake pro Kate",
        "Description[it]": "Estensione CMake per kate",
        "Description[ko]": "Kate CMake 플러그인",
        "Description[nl]": "CMake-plug-in voor kate",
        "Description[pl]": "Wtyczka CMake dla kate",
        "Description[pt]": "'Plugin' do CMake para o Kate",
        "Description[ru]": "Модуль CMake для Kate",
        "Description[sl]": "Vtičnik CMake za kate",
        "Description[sv]": "CMake-insticksprogram för Kate",
        "Description[tr]": "Kate için CMake eklentisi",
        "Description[uk]": "Додаток CMake до kate",
        "Description[vi]": "Phần cài cắm CMake cho Kate",
        "Description[x-test]": "xxCMake plugin for katexx",
        "Description[zh_CN]": "Kate 的 CMake 插件",
        "Name": "CMake Tools",
        "Name[az]": "CMake alətləri",
        "Name[bg]": "Инструменти на CMake",
        "Name[ca@valencia]": "Eines de CMake",
        "Name[ca]": "Eines de CMake",
        "Name[de]": "CMake-Tools",
        "Name[en_GB]": "CMake Tools",
        "Name[es]": "Herramientas CMake",
        "Name[fi]": "CMake-työkalut",
        "Name[fr]": "Outils « CMake »",
        "Name[hu]": "CMake eszközök",
        "Name[ia]": "Instrumentos de CMake",
        "Name[it]": "Strumenti CMake",
        "Name[ko]": "CMake 도구",
        "Name[nl]": "CMake-hulpmiddelen",
        "Name[pl]": "Narzędzia CMake",
        "Name[pt]": "Ferramentas do CMake",
        "Name[ru]": "Инструменты CMake",
        "Name[sl]": "Orodja za CMake",
        "Name[sv]": "CMake-verktyg",
        "Name[tr]": "CMake Araçları",
        "Name[uk]": "Інструменти CMake",
        "Name[vi]": "Các công cụ CMake",
        "Name[x-test]": "xxCMake Toolsxx",
        "Name[zh_CN]": "CMake 工具",
        "ServiceTypes": [
            "KTextEditor/Plugin"
        ]
    }
}
